…
# Arrange by descending uk_airdate
desserts %>% 
	arrange(desc(uk_airdate))

```

<!-- The output  -->

```{r, eval=FALSE}
# A tibble: 549 x 16
   series episode baker technical result uk_airdate us_season us_airdate
    <dbl>   <dbl> <chr> <chr>     <chr>  <date>         <dbl> <date>    
 1      8      10 Kate  3rd       RUNNE~ 2017-10-31        NA NA        
 2      8      10 Stev~ 1st       RUNNE~ 2017-10-31        NA NA        
 3      8      10 Soph~ 2nd       WINNER 2017-10-31        NA NA        
 4      8       9 Kate  4th       IN     2017-10-24        NA NA        
 5      8       9 Stev~ 3rd       IN     2017-10-24        NA NA        
 6      8       9 Stac~ 2nd       OUT    2017-10-24        NA NA        
 7      8       9 Soph~ 1st       SB     2017-10-24        NA NA        
 8      8       8 Kate  2nd       IN     2017-10-17        NA NA        
 9      8       8 Soph~ 4th       IN     2017-10-17        NA NA        
10      8       8 Stev~ 1st       IN     2017-10-17        NA NA        
# ... with 539 more rows, and 8 more variables: showstopper_chocolate <chr>,
#   showstopper_dessert <chr>, showstopper_fruit <chr>, showstopper_nut <chr>,
#   signature_chocolate <chr>, signature_dessert <chr>, signature_fruit <chr>,
#   signature_nut <chr>
```
…
